{
  "created_at": "Sat Oct 21 22:22:33 +0000 2017",
  "id": 9.2186431018754e+17,
  "id_str": "921864310187536385",
  "text": "RT @genesis_vision: Good news! $GVT was added in @myetherwallet list! To see your tokens just check them on balance using\u2026 ",
  "source": "<a href=\"http:\/\/twitter.com\" rel=\"nofollow\">Twitter Web Client<\/a>",
  "truncated": false,
  "in_reply_to_status_id": null,
  "in_reply_to_status_id_str": null,
  "in_reply_to_user_id": null,
  "in_reply_to_user_id_str": null,
  "in_reply_to_screen_name": null,
  "user": {
    "id": 2806929604,
    "id_str": "2806929604",
    "name": "Willis Gravelle",
    "screen_name": "oteroph",
    "location": "\u0414\u0443\u0434\u0438\u043d\u043a\u0430",
    "url": null,
    "description": null,
    "translator_type": "none",
    "protected": false,
    "verified": false,
    "followers_count": 694,
    "friends_count": 194,
    "listed_count": 0,
    "favourites_count": 1016,
    "statuses_count": 7263,
    "created_at": "Sun Oct 05 06:31:27 +0000 2014",
    "utc_offset": 3600,
    "time_zone": "London",
    "geo_enabled": false,
    "lang": "ru",
    "contributors_enabled": false,
    "is_translator": false,
    "profile_background_color": "C0DEED",
    "profile_background_image_url": "http:\/\/abs.twimg.com\/images\/themes\/theme1\/bg.png",
    "profile_background_image_url_https": "https:\/\/abs.twimg.com\/images\/themes\/theme1\/bg.png",
    "profile_background_tile": false,
    "profile_link_color": "1DA1F2",
    "profile_sidebar_border_color": "C0DEED",
    "profile_sidebar_fill_color": "DDEEF6",
    "profile_text_color": "333333",
    "profile_use_background_image": true,
    "profile_image_url": "http:\/\/pbs.twimg.com\/profile_images\/897667032329703424\/M9jJG2FW_normal.jpg",
    "profile_image_url_https": "https:\/\/pbs.twimg.com\/profile_images\/897667032329703424\/M9jJG2FW_normal.jpg",
    "profile_banner_url": "https:\/\/pbs.twimg.com\/profile_banners\/2806929604\/1483710743",
    "default_profile": true,
    "default_profile_image": false,
    "following": null,
    "follow_request_sent": null,
    "notifications": null
  },
  "geo": null,
  "coordinates": null,
  "place": null,
  "contributors": null,
  "retweeted_status": {
    "created_at": "Sat Oct 21 15:27:57 +0000 2017",
    "id": 9.2175997316363e+17,
    "id_str": "921759973163634689",
    "text": "Good news! $GVT was added in @myetherwallet list! To see your tokens just check them on balance using\u2026 https:\/\/t.co\/xZ6DSA8RSr",
    "display_text_range": [
      0,
      140
    ],
    "source": "<a href=\"http:\/\/twitter.com\" rel=\"nofollow\">Twitter Web Client<\/a>",
    "truncated": true,
    "in_reply_to_status_id": null,
    "in_reply_to_status_id_str": null,
    "in_reply_to_user_id": null,
    "in_reply_to_user_id_str": null,
    "in_reply_to_screen_name": null,
    "user": {
      "id": 8.6883744693874e+17,
      "id_str": "868837446938742786",
      "name": "Genesis Vision",
      "screen_name": "genesis_vision",
      "location": null,
      "url": "https:\/\/genesis.vision",
      "description": "Genesis Vision is the platform for the private trust management market, built on #blockchain technology and smart contracts.\n\nJoin our #ICO",
      "translator_type": "none",
      "protected": false,
      "verified": false,
      "followers_count": 3258,
      "friends_count": 42,
      "listed_count": 29,
      "favourites_count": 4,
      "statuses_count": 147,
      "created_at": "Sun May 28 14:32:44 +0000 2017",
      "utc_offset": -25200,
      "time_zone": "Pacific Time (US & Canada)",
      "geo_enabled": false,
      "lang": "en",
      "contributors_enabled": false,
      "is_translator": false,
      "profile_background_color": "F5F8FA",
      "profile_background_image_url": "",
      "profile_background_image_url_https": "",
      "profile_background_tile": false,
      "profile_link_color": "1DA1F2",
      "profile_sidebar_border_color": "C0DEED",
      "profile_sidebar_fill_color": "DDEEF6",
      "profile_text_color": "333333",
      "profile_use_background_image": true,
      "profile_image_url": "http:\/\/pbs.twimg.com\/profile_images\/892485117846880256\/pdr-CtPW_normal.jpg",
      "profile_image_url_https": "https:\/\/pbs.twimg.com\/profile_images\/892485117846880256\/pdr-CtPW_normal.jpg",
      "profile_banner_url": "https:\/\/pbs.twimg.com\/profile_banners\/868837446938742786\/1501619999",
      "default_profile": true,
      "default_profile_image": false,
      "following": null,
      "follow_request_sent": null,
      "notifications": null
    },
    "geo": null,
    "coordinates": null,
    "place": null,
    "contributors": null,
    "is_quote_status": false,
    "extended_tweet": {
      "full_text": "Good news! $GVT was added in @myetherwallet list! To see your tokens just check them on balance using @myetherwallet #ico  #blockhain $BTC https:\/\/t.co\/UkyyMLHPqt",
      "display_text_range": [
        0,
        138
      ],
      "entities": {
        "hashtags": [
          {
            "text": "ico",
            "indices": [
              117,
              121
            ]
          },
          {
            "text": "blockhain",
            "indices": [
              123,
              133
            ]
          }
        ],
        "urls": [
          
        ],
        "user_mentions": [
          {
            "screen_name": "myetherwallet",
            "name": "MyEtherWallet.com",
            "id": 4831010888,
            "id_str": "4831010888",
            "indices": [
              29,
              43
            ]
          },
          {
            "screen_name": "myetherwallet",
            "name": "MyEtherWallet.com",
            "id": 4831010888,
            "id_str": "4831010888",
            "indices": [
              102,
              116
            ]
          }
        ],
        "symbols": [
          {
            "text": "GVT",
            "indices": [
              11,
              15
            ]
          },
          {
            "text": "BTC",
            "indices": [
              134,
              138
            ]
          }
        ],
        "media": [
          {
            "id": 9.2175993026842e+17,
            "id_str": "921759930268422145",
            "indices": [
              139,
              162
            ],
            "media_url": "http:\/\/pbs.twimg.com\/media\/DMq_xdvWkAE-f_h.jpg",
            "media_url_https": "https:\/\/pbs.twimg.com\/media\/DMq_xdvWkAE-f_h.jpg",
            "url": "https:\/\/t.co\/UkyyMLHPqt",
            "display_url": "pic.twitter.com\/UkyyMLHPqt",
            "expanded_url": "https:\/\/twitter.com\/genesis_vision\/status\/921759973163634689\/photo\/1",
            "type": "photo",
            "sizes": {
              "thumb": {
                "w": 150,
                "h": 150,
                "resize": "crop"
              },
              "large": {
                "w": 2048,
                "h": 1140,
                "resize": "fit"
              },
              "medium": {
                "w": 1200,
                "h": 668,
                "resize": "fit"
              },
              "small": {
                "w": 680,
                "h": 379,
                "resize": "fit"
              }
            }
          }
        ]
      },
      "extended_entities": {
        "media": [
          {
            "id": 9.2175993026842e+17,
            "id_str": "921759930268422145",
            "indices": [
              139,
              162
            ],
            "media_url": "http:\/\/pbs.twimg.com\/media\/DMq_xdvWkAE-f_h.jpg",
            "media_url_https": "https:\/\/pbs.twimg.com\/media\/DMq_xdvWkAE-f_h.jpg",
            "url": "https:\/\/t.co\/UkyyMLHPqt",
            "display_url": "pic.twitter.com\/UkyyMLHPqt",
            "expanded_url": "https:\/\/twitter.com\/genesis_vision\/status\/921759973163634689\/photo\/1",
            "type": "photo",
            "sizes": {
              "thumb": {
                "w": 150,
                "h": 150,
                "resize": "crop"
              },
              "large": {
                "w": 2048,
                "h": 1140,
                "resize": "fit"
              },
              "medium": {
                "w": 1200,
                "h": 668,
                "resize": "fit"
              },
              "small": {
                "w": 680,
                "h": 379,
                "resize": "fit"
              }
            }
          }
        ]
      }
    },
    "quote_count": 3,
    "reply_count": 4,
    "retweet_count": 205,
    "favorite_count": 124,
    "entities": {
      "hashtags": [
        
      ],
      "urls": [
        {
          "url": "https:\/\/t.co\/xZ6DSA8RSr",
          "expanded_url": "https:\/\/twitter.com\/i\/web\/status\/921759973163634689",
          "display_url": "twitter.com\/i\/web\/status\/9\u2026",
          "indices": [
            103,
            126
          ]
        }
      ],
      "user_mentions": [
        {
          "screen_name": "myetherwallet",
          "name": "MyEtherWallet.com",
          "id": 4831010888,
          "id_str": "4831010888",
          "indices": [
            29,
            43
          ]
        }
      ],
      "symbols": [
        {
          "text": "GVT",
          "indices": [
            11,
            15
          ]
        }
      ]
    },
    "favorited": false,
    "retweeted": false,
    "possibly_sensitive": false,
    "filter_level": "low",
    "lang": "en"
  },
  "is_quote_status": false,
  "quote_count": 0,
  "reply_count": 0,
  "retweet_count": 0,
  "favorite_count": 0,
  "entities": {
    "hashtags": [
      
    ],
    "urls": [
      
    ],
    "user_mentions": [
      {
        "screen_name": "genesis_vision",
        "name": "Genesis Vision",
        "id": 8.6883744693874e+17,
        "id_str": "868837446938742786",
        "indices": [
          3,
          18
        ]
      },
      {
        "screen_name": "myetherwallet",
        "name": "MyEtherWallet.com",
        "id": 4831010888,
        "id_str": "4831010888",
        "indices": [
          49,
          63
        ]
      }
    ],
    "symbols": [
      {
        "text": "GVT",
        "indices": [
          31,
          35
        ]
      }
    ]
  },
  "favorited": false,
  "retweeted": false,
  "filter_level": "low",
  "lang": "en",
  "timestamp_ms": "1508624553616"
}